<?xml version="1.0" encoding="UTF-8" standalone="no"?>
<!-- Created with Inkscape (http://www.inkscape.org/) -->

<svg
   version="1.1"
   id="svg196"
   width="354"
   height="354"
   viewBox="0 0 354 354"
   sodipodi:docname="icon.svg"
   inkscape:version="1.2.2 (b0a8486541, 2022-12-01)"
   xml:space="preserve"
   xmlns:inkscape="http://www.inkscape.org/namespaces/inkscape"
   xmlns:sodipodi="http://sodipodi.sourceforge.net/DTD/sodipodi-0.dtd"
   xmlns="http://www.w3.org/2000/svg"
   xmlns:svg="http://www.w3.org/2000/svg"><defs
     id="defs200"><linearGradient
       id="linearGradient3293"
       inkscape:swatch="solid"><stop
         style="stop-color:#808000;stop-opacity:1;"
         offset="0"
         id="stop3291" /></linearGradient><linearGradient
       id="linearGradient3269"><stop
         style="stop-color:#808000;stop-opacity:1;"
         offset="0"
         id="stop3267" /></linearGradient><linearGradient
       id="linearGradient3123"
       inkscape:swatch="solid"><stop
         style="stop-color:#fc7f7f;stop-opacity:1;"
         offset="0"
         id="stop3121" /></linearGradient><linearGradient
       id="linearGradient3117"
       inkscape:swatch="solid"><stop
         style="stop-color:#000000;stop-opacity:1;"
         offset="0"
         id="stop3115" /></linearGradient></defs><sodipodi:namedview
     id="namedview198"
     pagecolor="#ffffff"
     bordercolor="#000000"
     borderopacity="0.25"
     inkscape:showpageshadow="2"
     inkscape:pageopacity="0.0"
     inkscape:pagecheckerboard="0"
     inkscape:deskcolor="#d1d1d1"
     showgrid="false"
     inkscape:zoom="4"
     inkscape:cx="-26.75"
     inkscape:cy="138"
     inkscape:window-width="3840"
     inkscape:window-height="2091"
     inkscape:window-x="0"
     inkscape:window-y="32"
     inkscape:window-maximized="1"
     inkscape:current-layer="g202"
     showguides="false" /><g
     inkscape:groupmode="layer"
     inkscape:label="Image"
     id="g202"><path
       style="fill:#000000;stroke-width:0.447873"
       id="path206"
       d="" /><path
       style="fill:#fc7f7f;fill-opacity:1;fill-rule:nonzero;stroke:#fc7f7f;stroke-width:0.17495;stroke-opacity:1"
       d="m 56.731492,278.37931 c -1.288215,-0.0704 -2.580756,-0.23865 -2.981011,-0.38811 -2.73047,-1.01962 -5.435224,-2.81184 -27.359316,-18.1287 -6.444712,-4.50249 -9.318947,-6.61101 -9.667894,-7.09229 -0.726659,-1.00225 -1.448839,-2.72437 -1.316915,-4.73855 0.114249,-1.74438 0.384124,-1.4432 -0.856331,-2.43829 -5.0494568,-4.03137 -6.2764074,-5.02579 -10.9175945,-8.99748 -8.734e-4,-0.061 -0.1169089,-1.09505 -0.2578602,-2.29785 -0.4836682,-4.12732 -1.3154682,-13.73439 -1.3590168,-15.69625 l -0.04357,-1.96265 0.5248515,-0.52019 c 0.2886683,-0.28609 1.5862551,-1.19396 2.8835255,-2.01747 l 2.3586755,-1.4973 h 62.766645 c 34.521649,0 62.766649,-0.0642 62.766649,-0.14277 0,-0.0785 -0.48014,-0.42682 -1.06698,-0.77397 -0.84945,-0.50251 -1.33984,-0.66065 -2.40555,-0.77571 -1.68569,-0.18199 -23.21236,-0.13898 -58.372473,0.11672 l -27.292276,0.19847 -15.220692,-6.55005 c -8.371381,-3.60254 -16.06646,-6.92231 -17.100173,-7.37729 -2.1656548,-0.9532 -2.0348438,-0.50849 -1.081754,-3.6775 1.396641,-4.64381 1.53457,-5.01772 1.902488,-5.15755 0.197419,-0.075 2.05159,-0.30241 4.12038,-0.50529 3.062828,-0.30039 51.226316,-4.57425 59.833067,-5.30939 2.342628,-0.20008 9.274706,-0.10259 27.904603,0.39233 3.46402,0.0919 10.82505,0.28731 16.35787,0.43394 27.69197,0.73397 75.68891,2.19315 95.26054,2.89609 l 5.24851,0.1885 8.66005,2.62102 c 4.76302,1.44157 12.03078,3.75829 16.15059,5.14826 l 7.49052,2.52723 19.10195,0.61064 c 26.59694,0.85025 29.91437,1.21657 30.86736,1.33386 0.66551,0.0819 0.83963,0.0299 0.35828,0.93723 l -0.42121,0.79397 24.42478,-2.6e-4 h 23.96822 v 1.82626 1.82625 l -0.74354,0.0987 c -1.60763,0.21323 -11.02844,0.59917 -32.23463,1.32051 -12.90267,0.4389 -17.62865,0.75444 -19.40765,0.8922 -1.90309,0.14738 -1.26748,-0.15002 -3.52312,1.39477 l -0.71205,0.48765 -5.58617,0.10609 c -3.07238,0.0584 -12.96718,0.18656 -21.98841,0.28497 l -16.40228,0.17892 -5.81643,1.02736 c -10.03481,1.77244 -14.80919,2.43839 -17.71203,2.47051 -1.91916,0.0213 -2.43406,0.14761 -2.50213,0.61406 -0.14068,0.96447 0.54693,1.08843 54.19894,9.77203 34.63798,5.60617 39.8479,6.46753 39.99229,6.61194 0.12317,0.12317 -1.63395,3.41067 -5.56265,10.40802 l -2.97136,5.29225 h -2.08302 c -1.14564,0 -2.08299,0.071 -2.08299,0.15757 0,0.3386 -0.70132,4.16445 -0.8741,4.76842 -0.30519,1.06673 -3.78932,4.16974 -13.64679,12.15394 -13.58475,11.00316 -18.26683,14.53163 -20.31554,15.31009 -1.42382,0.54101 -4.20962,0.68151 -16.86144,0.85038 -14.04709,0.18749 -194.951539,0.18196 -198.393844,-0.006 z"
       id="path3297"
       sodipodi:nodetypes="cssssccsscsscsssssccsssssccscsscssscccccsssscsscsssssscsssssscc" /><path
       style="fill:#fc7f7f;fill-opacity:1;stroke:#fc7f7f;stroke-width:1.3996;stroke-opacity:1"
       d="M 47.765307,96.410048 V 62.119754 H 167.43144 287.09756 V 96.410048 130.70034 H 167.43144 47.765307 Z M 270.30232,95.710247 V 78.915 h -68.58059 -68.58059 v 16.795247 16.795243 h 68.58059 68.58059 z"
       id="path3891" /></g></svg>
